…
## Examples

``` r
# Examples that hit the live NYC Open Data API are wrapped so CRAN checks
# do not fail when the network is unavailable or slow.
# \donttest{
if (curl::has_internet()) {
  # Quick example (fetch 2 rows)
  small_sample <- nyc_311_2010_2019(limit = 2)
  small_sample

  nyc_311_2010_2019(filters = list(agency = "NYPD", city = "BROOKLYN"))
}
#> # A tibble: 10,000 × 37
#>    unique_key created_date          agency agency_name complaint_type descriptor
#>    <chr>      <chr>                 <chr>  <chr>       <chr>          <chr>     
#>  1 67596881   2026-01-25T02:04:27.… NYPD   New York C… Noise - Resid… Loud Musi…
#>  2 67596867   2026-01-25T02:03:40.… NYPD   New York C… Noise - Comme… Loud Musi…
#>  3 67595131   2026-01-25T02:03:13.… NYPD   New York C… Blocked Drive… Partial A…
#>  4 67600240   2026-01-25T02:00:47.… NYPD   New York C… Noise - Resid… Banging/P…
#>  5 67600279   2026-01-25T01:58:32.… NYPD   New York C… Illegal Parki… Parking P…
#>  6 67605151   2026-01-25T01:58:31.… NYPD   New York C… Blocked Drive… Partial A…
#>  7 67600259   2026-01-25T01:57:34.… NYPD   New York C… Noise - Stree… Loud Talk…
#>  8 67595207   2026-01-25T01:55:05.… NYPD   New York C… Noise - Resid… Banging/P…
#>  9 67603496   2026-01-25T01:53:20.… NYPD   New York C… Illegal Parki… Blocked H…
#> 10 67603504   2026-01-25T01:52:45.… NYPD   New York C… Illegal Parki… Commercia…
#> # ℹ 9,990 more rows
#> # ℹ 31 more variables: location_type <chr>, incident_zip <chr>,
#> #   incident_address <chr>, street_name <chr>, cross_street_1 <chr>,
#> #   cross_street_2 <chr>, intersection_street_1 <chr>,
#> #   intersection_street_2 <chr>, address_type <chr>, city <chr>,
#> #   landmark <chr>, status <chr>, community_board <chr>,
#> #   council_district <chr>, police_precinct <chr>, bbl <chr>, borough <chr>, …
…
