…
# \donttest{
nyc_medallion_drivers_active(limit = 5000)
#> # A tibble: 5,000 × 6
#>    license_number name                   type  expiration_date last_updated_date
#>    <chr>          <chr>                  <chr> <chr>           <chr>            
#>  1 5794718        ILYADI,RAMIN           MEDA… 2026-08-25T00:… 2026-01-23T00:00…
#>  2 6124536        K C,RAJAN              MEDA… 2028-12-23T00:… 2026-01-23T00:00…
#>  3 6065238        VALENZUELA,ADALGISA    MEDA… 2027-02-01T00:… 2026-01-23T00:00…
#>  4 5709189        KAMBARA,NORIKI         MEDA… 2028-08-05T00:… 2026-01-23T00:00…
#>  5 5279414        ISLAM,MD,S             MEDA… 2029-03-09T00:… 2026-01-23T00:00…
#>  6 6032845        RUDECINDO,YESENIA      MEDA… 2026-06-27T00:… 2026-01-23T00:00…
#>  7 6062422        KAREEM,RUTH,EBUN       MEDA… 2027-01-02T00:… 2026-01-23T00:00…
#>  8 5981487        WU,RUILIAN             MEDA… 2027-10-08T00:… 2026-01-23T00:00…
#>  9 6109938        IFTIKHAR,IMRAN         MEDA… 2028-06-02T00:… 2026-01-23T00:00…
#> 10 6063058        MUNOZ GUZMAN,RAYMOND,… MEDA… 2027-01-17T00:… 2026-01-23T00:00…
#> # ℹ 4,990 more rows
#> # ℹ 1 more variable: last_updated_time <chr>
nyc_medallion_drivers_active(filters = list(type = "MEDALLION TAXI DRIVER"))
#> # A tibble: 10,000 × 6
#>    license_number name                   type  expiration_date last_updated_date
#>    <chr>          <chr>                  <chr> <chr>           <chr>            
#>  1 5794718        ILYADI,RAMIN           MEDA… 2026-08-25T00:… 2026-01-23T00:00…
#>  2 6124536        K C,RAJAN              MEDA… 2028-12-23T00:… 2026-01-23T00:00…
#>  3 6065238        VALENZUELA,ADALGISA    MEDA… 2027-02-01T00:… 2026-01-23T00:00…
#>  4 5709189        KAMBARA,NORIKI         MEDA… 2028-08-05T00:… 2026-01-23T00:00…
#>  5 5279414        ISLAM,MD,S             MEDA… 2029-03-09T00:… 2026-01-23T00:00…
#>  6 6032845        RUDECINDO,YESENIA      MEDA… 2026-06-27T00:… 2026-01-23T00:00…
#>  7 6062422        KAREEM,RUTH,EBUN       MEDA… 2027-01-02T00:… 2026-01-23T00:00…
#>  8 5981487        WU,RUILIAN             MEDA… 2027-10-08T00:… 2026-01-23T00:00…
#>  9 6109938        IFTIKHAR,IMRAN         MEDA… 2028-06-02T00:… 2026-01-23T00:00…
#> 10 6063058        MUNOZ GUZMAN,RAYMOND,… MEDA… 2027-01-17T00:… 2026-01-23T00:00…
#> # ℹ 9,990 more rows
#> # ℹ 1 more variable: last_updated_time <chr>
…
