…
# \donttest{
nyc_dop_Juvenile_cases(limit = 5000)
#> # A tibble: 572 × 5
#>    borough  supervision_caseload_type         month year  supervision_caseload…¹
#>    <chr>    <chr>                             <chr> <chr> <chr>                 
#>  1 Citywide Enhanced Supervision Program      Octo… 2025  282                   
#>  2 Citywide Juvenile Justice Initiative       Octo… 2025  135                   
#>  3 Citywide Pathways to Excellence Achieveme… Octo… 2025  0                     
#>  4 Citywide IMPACT                            Octo… 2025  0                     
#>  5 Citywide Every Child Has An Opportunity T… Octo… 2025  6                     
#>  6 Citywide General Supervision               Octo… 2025  648                   
#>  7 Citywide Advocate Intervene Mentor         Octo… 2025  38                    
#>  8 Citywide Juvenile Justice Initiative       Sept… 2025  128                   
#>  9 Citywide Every Child Has An Opportunity T… Sept… 2025  8                     
#> 10 Citywide Pathways to Excellence Achieveme… Sept… 2025  0                     
#> # ℹ 562 more rows
#> # ℹ abbreviated name: ¹​supervision_caseload_count
nyc_dop_Juvenile_cases(filters = list(borough = "Citywide"))
#> # A tibble: 572 × 5
#>    borough  supervision_caseload_type         month year  supervision_caseload…¹
#>    <chr>    <chr>                             <chr> <chr> <chr>                 
#>  1 Citywide Juvenile Justice Initiative       Janu… 2025  110                   
#>  2 Citywide Enhanced Supervision Program      Octo… 2025  282                   
#>  3 Citywide Juvenile Justice Initiative       Octo… 2025  135                   
#>  4 Citywide Pathways to Excellence Achieveme… Octo… 2025  0                     
#>  5 Citywide IMPACT                            Octo… 2025  0                     
#>  6 Citywide Every Child Has An Opportunity T… Octo… 2025  6                     
#>  7 Citywide General Supervision               Octo… 2025  648                   
#>  8 Citywide Advocate Intervene Mentor         Octo… 2025  38                    
#>  9 Citywide Juvenile Justice Initiative       Sept… 2025  128                   
#> 10 Citywide Every Child Has An Opportunity T… Sept… 2025  8                     
#> # ℹ 562 more rows
#> # ℹ abbreviated name: ¹​supervision_caseload_count
…
