City Record Online — nyc_city_record • nycOpenData
…
# \donttest{
nyc_city_record(limit = 5000)
#> # A tibble: 5,000 × 29
#>    request_id  start_date            end_date agency_name type_of_notice_descr…¹
#>    <chr>       <chr>                 <chr>    <chr>       <chr>                 
#>  1 20260116008 2026-01-23T00:00:00.… 2026-01… Education   Award                 
#>  2 20260121002 2026-01-23T00:00:00.… 2026-01… Housing Au… Notice                
#>  3 20260115017 2026-01-23T00:00:00.… 2026-01… Parks and … Public Hearings       
#>  4 20260105003 2026-01-23T00:00:00.… 2026-01… Franchise … Meeting               
#>  5 20260114032 2026-01-23T00:00:00.… 2026-01… Health and… Public Comment        
#>  6 20260120026 2026-01-23T00:00:00.… 2026-01… Parks and … Solicitation          
#>  7 20260116014 2026-01-23T00:00:00.… 2026-01… Citywide A… Award                 
#>  8 20260116006 2026-01-23T00:00:00.… 2026-01… Dept. of S… Award                 
#>  9 20260116013 2026-01-23T00:00:00.… 2026-01… Law Depart… Award                 
#> 10 20260116003 2026-01-23T00:00:00.… 2026-01… Homeless S… Intent to Award       
#> # ℹ 4,990 more rows
#> # ℹ abbreviated name: ¹​type_of_notice_description
#> # ℹ 24 more variables: category_description <chr>, short_title <chr>,
#> #   selection_method_description <chr>, section_name <chr>, pin <chr>,
#> #   contact_name <chr>, contact_phone <chr>, email <chr>,
#> #   contract_amount <chr>, vendor_name <chr>, vendor_address <chr>,
#> #   additional_description_1 <chr>, event_date <chr>, street_address_1 <chr>, …
nyc_city_record(filters = list(short_title = "APPOINTED"))
#> # A tibble: 10,000 × 7
#>    request_id start_date           end_date agency_name short_title section_name
#>    <chr>      <chr>                <chr>    <chr>       <chr>       <chr>       
#>  1 951950     2025-11-07T00:00:00… 2025-10… DEPARTMENT… APPOINTED   Changes in …
#>  2 951790     2025-11-07T00:00:00… 2025-10… MAYORS OFF… APPOINTED   Changes in …
#>  3 951921     2025-11-07T00:00:00… 2025-10… TAXI & LIM… APPOINTED   Changes in …
#>  4 951717     2025-11-07T00:00:00… 2025-10… HRA/DEPT O… APPOINTED   Changes in …
#>  5 951798     2025-11-07T00:00:00… 2025-10… FIRE DEPAR… APPOINTED   Changes in …
#>  6 951754     2025-11-07T00:00:00… 2025-10… FIRE DEPAR… APPOINTED   Changes in …
#>  7 952023     2025-11-07T00:00:00… 2025-10… FIRE DEPAR… APPOINTED   Changes in …
#>  8 951867     2025-11-07T00:00:00… 2025-10… FIRE DEPAR… APPOINTED   Changes in …
#>  9 951835     2025-11-07T00:00:00… 2025-10… DEPT. OF H… APPOINTED   Changes in …
#> 10 951769     2025-11-07T00:00:00… 2025-10… FIRE DEPAR… APPOINTED   Changes in …
#> # ℹ 9,990 more rows
#> # ℹ 1 more variable: additional_description_1 <chr>
…
