…
# \donttest{
nyc_311(limit = 5000)
#> # A tibble: 5,000 × 43
#>    unique_key created_date          agency agency_name complaint_type descriptor
#>    <chr>      <chr>                 <chr>  <chr>       <chr>          <chr>     
#>  1 66925104   2025-11-23T02:20:26.… NYPD   New York C… Noise - Stree… Loud Talk…
#>  2 66922869   2025-11-23T02:19:42.… NYPD   New York C… Noise - Resid… Banging/P…
#>  3 66918371   2025-11-23T02:19:33.… NYPD   New York C… Noise - Comme… Loud Musi…
#>  4 66920775   2025-11-23T02:19:32.… DSNY   Department… Vendor Enforc… Food Vend…
#>  5 66925096   2025-11-23T02:19:17.… NYPD   New York C… Noise - Resid… Loud Musi…
#>  6 66918347   2025-11-23T02:19:16.… NYPD   New York C… Illegal Parki… Blocked H…
#>  7 66926189   2025-11-23T02:19:14.… NYPD   New York C… Noise - Resid… Loud Musi…
#>  8 66918380   2025-11-23T02:19:08.… NYPD   New York C… Noise - Resid… Banging/P…
#>  9 66918342   2025-11-23T02:18:54.… NYPD   New York C… Illegal Parki… Blocked H…
#> 10 66922886   2025-11-23T02:17:45.… NYPD   New York C… Noise - Resid… Loud Musi…
#> # ℹ 4,990 more rows
#> # ℹ 37 more variables: location_type <chr>, incident_zip <chr>,
#> #   incident_address <chr>, street_name <chr>, cross_street_1 <chr>,
#> #   cross_street_2 <chr>, intersection_street_1 <chr>,
#> #   intersection_street_2 <chr>, address_type <chr>, city <chr>,
#> #   landmark <chr>, status <chr>, community_board <chr>, bbl <chr>,
#> #   borough <chr>, x_coordinate_state_plane <chr>, …
nyc_311(filters = list(agency = "NYPD", city = "BROOKLYN"))
#> # A tibble: 10,000 × 35
#>    unique_key created_date          agency agency_name complaint_type descriptor
#>    <chr>      <chr>                 <chr>  <chr>       <chr>          <chr>     
#>  1 66926189   2025-11-23T02:19:14.… NYPD   New York C… Noise - Resid… Loud Musi…
#>  2 66921737   2025-11-23T02:17:45.… NYPD   New York C… Noise - Resid… Loud Musi…
#>  3 66922881   2025-11-23T02:16:51.… NYPD   New York C… Noise - Resid… Loud Musi…
#>  4 66924020   2025-11-23T02:13:23.… NYPD   New York C… Noise - Stree… Loud Musi…
#>  5 66919534   2025-11-23T02:13:15.… NYPD   New York C… Noise - Vehic… Car/Truck…
#>  6 66918348   2025-11-23T02:10:44.… NYPD   New York C… Illegal Parki… Blocked H…
#>  7 66922846   2025-11-23T02:09:49.… NYPD   New York C… Illegal Parki… Posted Pa…
#>  8 66922876   2025-11-23T02:09:32.… NYPD   New York C… Noise - Resid… Loud Musi…
#>  9 66920811   2025-11-23T02:08:54.… NYPD   New York C… Illegal Parki… Blocked C…
#> 10 66919506   2025-11-23T02:08:10.… NYPD   New York C… Noise - Comme… Loud Musi…
#> # ℹ 9,990 more rows
#> # ℹ 29 more variables: location_type <chr>, incident_zip <chr>,
#> #   incident_address <chr>, street_name <chr>, cross_street_1 <chr>,
#> #   cross_street_2 <chr>, intersection_street_1 <chr>,
#> #   intersection_street_2 <chr>, address_type <chr>, city <chr>,
#> #   landmark <chr>, status <chr>, community_board <chr>, bbl <chr>,
#> #   borough <chr>, x_coordinate_state_plane <chr>, …
…
