…
# \donttest{
nyc_domestic_violence_annual_report(limit = 5000)
#> # A tibble: 265 × 8
#>    year  category         bronx brooklyn manhattan queens staten_island citywide
#>    <chr> <chr>            <chr> <chr>    <chr>     <chr>  <chr>         <chr>   
#>  1 2024  FJC_Client_Visi… 10844 12860    11003     13421  9528          57,656  
#>  2 2024  FJC_Unique_Clie… 3007  4247     2688      3472   1793          15,207  
#>  3 2024  FJC_Unique_Clie… 4225  2839     2228      2659   1478          13429   
#>  4 2024  FJC_Unique_Clie… 2083  183      158       1377   442           4243    
#>  5 2024  FJC_Unique_Clie… 1094  1526     685       993    485           4793    
#>  6 2024  FJC_Unique_Clie… 584   729      822       547    271           2953    
#>  7 2024  FJC_Unique_Clie… 360   1202     530       688    192           2972    
#>  8 2024  FJC_Unique_Clie… 300   321      148       349    230           1348    
#>  9 2024  FJC_Unique_Clie… 542   856      221       260    276           2155    
#> 10 2024  FJC_Unique_Clie… 85    171      84        73     88            501     
#> # ℹ 255 more rows
…
