…
# \donttest{
nyc_school_discharge_report_2013_2015(limit = 5000)
#> # A tibble: 5,000 × 13
#>    school_year geography report_category school_dbn school_name         by_group
#>    <chr>       <chr>     <chr>           <chr>      <chr>               <chr>   
#>  1 2014-2015   School    Attendance Rate 31R014     P.S. 014 Cornelius… Gender …
#>  2 2014-2015   School    Attendance Rate 31R014     P.S. 014 Cornelius… Gender …
#>  3 2014-2015   School    Attendance Rate 31R014     P.S. 014 Cornelius… Gender …
#>  4 2014-2015   School    Attendance Rate 31R014     P.S. 014 Cornelius… Gender …
#>  5 2014-2015   School    Attendance Rate 31R014     P.S. 014 Cornelius… Gender …
#>  6 2014-2015   School    Attendance Rate 31R014     P.S. 014 Cornelius… Gender …
#>  7 2014-2015   School    Attendance Rate 31R014     P.S. 014 Cornelius… Gender …
#>  8 2014-2015   School    Attendance Rate 31R014     P.S. 014 Cornelius… Gender …
#>  9 2014-2015   School    Attendance Rate 31R014     P.S. 014 Cornelius… Grade b…
#> 10 2014-2015   School    Attendance Rate 31R014     P.S. 014 Cornelius… Grade b…
#> # ℹ 4,990 more rows
#> # ℹ 7 more variables: group_demographic <chr>, group_metrics <chr>,
#> #   value <chr>, percentage_within_demographic <chr>,
#> #   total_number_within <chr>, to_school_dbn <chr>, to_school_name <chr>
nyc_school_discharge_report_2013_2015(filters = list(geography = "Citywide"))
#> # A tibble: 10,000 × 11
#>    school_year geography report_category by_group              group_demographic
#>    <chr>       <chr>     <chr>           <chr>                 <chr>            
#>  1 2014-2015   Citywide  Attendance Rate Gender by Attendance… Female           
#>  2 2014-2015   Citywide  Attendance Rate Gender by Attendance… Female           
#>  3 2014-2015   Citywide  Attendance Rate Gender by Attendance… Female           
#>  4 2014-2015   Citywide  Attendance Rate Gender by Attendance… Female           
#>  5 2014-2015   Citywide  Attendance Rate Gender by Attendance… Male             
#>  6 2014-2015   Citywide  Attendance Rate Gender by Attendance… Male             
#>  7 2014-2015   Citywide  Attendance Rate Gender by Attendance… Male             
#>  8 2014-2015   Citywide  Attendance Rate Gender by Attendance… Male             
#>  9 2014-2015   Citywide  Attendance Rate Gender by Attendance… Male             
#> 10 2014-2015   Citywide  Attendance Rate Gender by Attendance… Male             
#> # ℹ 9,990 more rows
#> # ℹ 6 more variables: group_metrics <chr>, value <chr>,
#> #   percentage_within_demographic <chr>, total_number_within <chr>,
#> #   to_school_dbn <chr>, to_school_name <chr>
…
