OATH Hearings Division Case Status — nyc_oath_hearing_case_status • nycOpenData
…
# \donttest{
nyc_oath_hearing_case_status(limit = 5000)
#> # A tibble: 5,000 × 45
#>    ticket_number violation_date          issuing_agency respondent_first_name
#>    <chr>         <chr>                   <chr>          <chr>                
#>  1 018543P       2109-10-19T00:00:00.000 TAXI_TLC       ILYAS                
#>  2 73221914A     2025-12-11T00:00:00.000 TAXI_TLC       SHAIKH               
#>  3 74512129A     2025-12-10T00:00:00.000 TAXI_TLC       AKHUNOVA             
#>  4 73121114A     2025-12-10T00:00:00.000 TAXI_TLC       JUAN                 
#>  5 73722812A     2025-12-10T00:00:00.000 TAXI_TLC       A                    
#>  6 73281467A     2025-12-10T00:00:00.000 TAXI_TLC       LEON LOZADA          
#>  7 74710819A     2025-12-10T00:00:00.000 TAXI_TLC       MEJIA                
#>  8 74460838A     2025-12-10T00:00:00.000 TAXI_TLC       KHAN                 
#>  9 73150794A     2025-12-10T00:00:00.000 TAXI_TLC       BARUA                
#> 10 73221911A     2025-12-10T00:00:00.000 TAXI_TLC       MARYERING CASTANEDA  
#> # ℹ 4,990 more rows
#> # ℹ 41 more variables: respondent_last_name <chr>,
#> #   violation_location_borough <chr>, violation_location_city <chr>,
#> #   violation_location_zip_code <chr>, respondent_address_borough <chr>,
#> #   total_violation_amount <chr>, violation_details <chr>,
#> #   penalty_imposed <chr>, paid_amount <chr>, charge_1_code <chr>,
#> #   charge_1_code_section <chr>, charge_1_infraction_amount <chr>, …
nyc_oath_hearing_case_status(filters = list(respondent_address_borough = "BROOKLYN"))
#> # A tibble: 10,000 × 64
#>    ticket_number violation_date          violation_time issuing_agency        
#>    <chr>         <chr>                   <chr>          <chr>                 
#>  1 0217706583    2024-12-11T00:00:00.000 18:14:00       POLICE DEPARTMENT     
#>  2 0219107094    2024-08-23T00:00:00.000 18:42:00       POLICE DEPARTMENT     
#>  3 0217152980    2024-07-15T00:00:00.000 00:00:00       POLICE DEPARTMENT     
#>  4 0217047710    2024-07-03T00:00:00.000 00:00:00       POLICE DEPARTMENT     
#>  5 0218212318    2024-06-05T00:00:00.000 22:11:00       POLICE DEPARTMENT     
#>  6 0703506540    2024-02-08T00:00:00.000 14:14:00       DEPT OF TRANSPORTATION
#>  7 0216773619    2024-01-26T00:00:00.000 12:13:00       POLICE DEPARTMENT     
#>  8 0703401820    2023-10-07T00:00:00.000 23:07:00       DEPT OF TRANSPORTATION
#>  9 0196593816    2022-05-21T00:00:00.000 18:55:00       POLICE DEPARTMENT     
#> 10 046963878R    2020-12-14T00:00:00.000 08:21:00       SANITATION RECYCLING  
#> # ℹ 9,990 more rows
#> # ℹ 60 more variables: respondent_first_name <chr>, respondent_last_name <chr>,
#> #   balance_due <chr>, violation_location_borough <chr>,
#> #   violation_location_block_no <chr>, violation_location_lot_no <chr>,
#> #   violation_location_house <chr>, violation_location_street_name <chr>,
#> #   violation_location_city <chr>, violation_location_zip_code <chr>,
#> #   violation_location_state_name <chr>, respondent_address_borough <chr>, …
…
