…
# \donttest{
nyc_period_attendance_reporting(limit = 5000)
#> # A tibble: 5,000 × 39
#>    boro  year      period district level school grade_code instruction_days
#>    <chr> <chr>     <chr>  <chr>    <chr> <chr>  <chr>      <chr>           
#>  1 NA    NA        NA     NA       NA    NA     NA         NA              
#>  2 Q     2015-2016 3      28       220   217    0          17              
#>  3 Q     2015-2016 1      28       340   328    0          12              
#>  4 M     2015-2016 1      2        340   586    0          12              
#>  5 K     2015-2016 3      18       110   244    0          17              
#>  6 K     2015-2016 2      21       110   212    0          21              
#>  7 Q     2015-2016 1      29       340   326    0          12              
#>  8 M     2015-2016 2      2        340   425    0          21              
#>  9 R     2015-2016 3      31       110   3      0          17              
#> 10 K     2015-2016 2      17       220   354    0          21              
#> # ℹ 4,990 more rows
#> # ℹ 31 more variables: religious_holydays <chr>, classes <chr>,
#> #   register_last_report <chr>, admissions <chr>, present_register <chr>,
#> #   aggregate_register <chr>, aggregate_attendance <chr>,
#> #   holyday_counter <chr>, register_01 <chr>, attendance_01 <chr>,
#> #   register_02 <chr>, attendance_02 <chr>, register_03 <chr>,
#> #   attendance_03 <chr>, register_04 <chr>, attendance_04 <chr>, …
nyc_period_attendance_reporting(filters = list(boro = "X"))
#> # A tibble: 5,760 × 39
#>    boro  year      period district level school grade_code instruction_days
#>    <chr> <chr>     <chr>  <chr>    <chr> <chr>  <chr>      <chr>           
#>  1 X     2015-2016 1      10       110   246    0          12              
#>  2 X     2015-2016 2      8        220   269    0          21              
#>  3 X     2015-2016 3      12       110   134    0          17              
#>  4 X     2015-2016 2      11       110   178    0          21              
#>  5 X     2015-2016 1      10       110   46     0          12              
#>  6 X     2015-2016 1      8        110   48     0          12              
#>  7 X     2015-2016 3      9        340   276    0          17              
#>  8 X     2015-2016 2      8        340   561    0          21              
#>  9 X     2015-2016 1      11       340   418    0          12              
#> 10 X     2015-2016 2      8        340   282    0          21              
#> # ℹ 5,750 more rows
#> # ℹ 31 more variables: religious_holydays <chr>, classes <chr>,
#> #   register_last_report <chr>, admissions <chr>, transfers_in <chr>,
#> #   discharges <chr>, transfers_out <chr>, present_register <chr>,
#> #   aggregate_register <chr>, aggregate_attendance <chr>,
#> #   holyday_counter <chr>, register_01 <chr>, attendance_01 <chr>,
#> #   register_02 <chr>, attendance_02 <chr>, register_03 <chr>, …
…
