Investigating Inmate Incidents • nycOpenData
…
By using the nyc_slash_stab function, we can investigate
the most recent violent incidents that occurred among incarcerated
individuals to understand their nature and fatality.

Let’s take a look at the dataset.

To start, let’s pull a small sample to see what the data looks like.
By default, the function pulls in the 10,000 most recent
requests, however, let’s change that to only see the latest 3 requests.
To do this, we can set limit = 3.

small_sample <- nyc_slash_stab(limit = 100)
small_sample
#> # A tibble: 100 × 4
#>    incident_id reported_dt             incident_type facility
#>    <chr>       <chr>                   <chr>         <chr>   
#>  1 227264      2026-01-24T21:10:00.000 Stabbing      GRVC    
#>  2 226926      2026-01-17T19:58:00.000 Stabbing      OBCC    
#>  3 226877      2026-01-16T17:51:00.000 Stabbing      NIC     
#>  4 226700      2026-01-13T15:10:00.000 Stabbing      GRVC    
#>  5 226465      2026-01-08T07:09:00.000 Stabbing      RNDC    
#>  6 226408      2026-01-06T23:25:00.000 Stabbing      RMSC    
#>  7 226398      2026-01-06T19:34:00.000 Stabbing      GRVC    
#>  8 226206      2026-01-01T11:14:00.000 Stabbing      OBCC    
#>  9 226110      2025-12-30T13:21:00.000 Stabbing      EMTC    
#> 10 225938      2025-12-26T20:33:00.000 Stabbing      OBCC    
#> # ℹ 90 more rows
…
