…
## Examples

``` r
# Examples that hit the live NYC Open Data API are wrapped so CRAN checks
# do not fail when the network is unavailable or slow.
# \donttest{
if (curl::has_internet()) {
  # Quick example (fetch 2 rows)
  small_sample <- nyc_motor_vehicle_collisions_crashes(limit = 2)
  small_sample

  nyc_motor_vehicle_collisions_crashes(filters = list(borough = "BROOKLYN"))
}
#> # A tibble: 10,000 × 31
#>    crash_date      crash_time borough zip_code latitude longitude on_street_name
#>    <chr>           <chr>      <chr>   <chr>    <chr>    <chr>     <chr>         
#>  1 2026-01-20T00:… 17:48      BROOKL… 11226    40.6505… -73.9558… CHURCH AVE    
#>  2 2026-01-20T00:… 8:50       BROOKL… 11231    40.6746… -74.00771 COLUMBIA ST   
#>  3 2026-01-20T00:… 7:22       BROOKL… 11204    40.6225… -73.99461 NA            
#>  4 2026-01-20T00:… 4:48       BROOKL… 11238    40.6729… -73.9674… EASTERN PKWY  
#>  5 2026-01-20T00:… 18:02      BROOKL… 11226    40.6413… -73.9477… NA            
#>  6 2026-01-20T00:… 13:50      BROOKL… 11230    0.00000… 0.0000000 NA            
#>  7 2026-01-20T00:… 14:05      BROOKL… 11215    40.67045 -73.9819… 6 AVE         
#>  8 2026-01-20T00:… 8:37       BROOKL… 11213    40.67801 -73.9413… ATLANTIC AVE  
#>  9 2026-01-20T00:… 2:47       BROOKL… 11222    40.7237… -73.93753 CHERRY ST     
#> 10 2026-01-20T00:… 16:55      BROOKL… 11208    40.68081 -73.8848… ARLINGTON AVE 
#> # ℹ 9,990 more rows
#> # ℹ 24 more variables: off_street_name <chr>, number_of_persons_injured <chr>,
#> #   number_of_persons_killed <chr>, number_of_pedestrians_injured <chr>,
#> #   number_of_pedestrians_killed <chr>, number_of_cyclist_injured <chr>,
#> #   number_of_cyclist_killed <chr>, number_of_motorist_injured <chr>,
#> #   number_of_motorist_killed <chr>, contributing_factor_vehicle_1 <chr>,
#> #   collision_id <chr>, vehicle_type_code1 <chr>, …
…
