DOHMH New York City Restaurant Inspection Results — nyc_restaurant_inspection_results • nycOpenData
…
    Examples

# Examples that hit the live NYC Open Data API are wrapped so CRAN checks
# do not fail when the network is unavailable or slow.
# \donttest{
if (curl::has_internet()) {
  # Quick example (fetch 10 rows)
  small_sample <- nyc_restaurant_inspection_results(limit = 10)
  head(small_sample)

  nyc_restaurant_inspection_results(limit = 5000)
  nyc_restaurant_inspection_results(filters = list(boro = "Queens"))
}
#> # A tibble: 10,000 × 28
#>    camis    dba          boro  building street zipcode phone cuisine_description
#>    <chr>    <chr>        <chr> <chr>    <chr>  <chr>   <chr> <chr>              
#>  1 40510647 ROTI CORNER… Quee… 18018    HILLS… 11432   7186… Caribbean          
#>  2 41143410 PRESS 195    Quee… 40-11    BELL … 11361   7182… Sandwiches/Salads/…
#>  3 50117709 CHUN YANG T… Quee… 4910     VERNO… 11101   3474… Coffee/Tea         
#>  4 50175203 PRINCE GRIL… Quee… 3801     VERNO… 11101   3479… Sandwiches/Salads/…
#>  5 40370167 BURGER KING  Quee… 222-10   NORTH… 11361   7182… Hamburgers         
#>  6 50142811 IZAYAKA NON… Quee… 46-44    VERNO… 11101   9149… Thai               
#>  7 50087176 K & L DELIC… Quee… 76-01    37 AV… 11372   2015… Sandwiches         
#>  8 50065723 PANTRY MARK… Quee… 2420     JACKS… 11101   7186… Sandwiches/Salads/…
#>  9 50038249 TOUS LES JO… Quee… 39-02    UNION… 11354   7187… Bakery Products/De…
#> 10 50170107 SOL DE COLO… Quee… 3437     BELL … 11361   6315… Latin American     
#> # ℹ 9,990 more rows
#> # ℹ 20 more variables: inspection_date <chr>, action <chr>,
#> #   violation_code <chr>, violation_description <chr>, critical_flag <chr>,
#> #   score <chr>, record_date <chr>, inspection_type <chr>, latitude <chr>,
#> #   longitude <chr>, community_board <chr>, council_district <chr>,
#> #   census_tract <chr>, bin <chr>, bbl <chr>, nta <chr>, grade <chr>,
#> #   grade_date <chr>, location.type <chr>, location.coordinates <list>
…
